{
    "source": "US Retail & Leisure Business News",
    "url": "https://example.com/us-retail-leisure-news/",
    "days": 7,
    "cutoff_date": "2025-12-22",
    "total": 180,
    "pages": 12,
    "timestamp": "2025-12-22T14:37:00",
    "articles": [
        {
            "headline": "Walmart Inc. Highlights Strong Weekend Traffic Ahead of Christmas",
            "url": "https://example.com/business-news/walmart-pre-christmas-traffic-1238500111/",
            "page": 11
        },
        {
            "headline": "Target Corporation Reports Early Sellouts in Key Toy Categories",
            "url": "https://example.com/business-news/target-toy-sellouts-1238500112/",
            "page": 11
        },
        {
            "headline": "Costco Wholesale Sees Record Demand for Holiday Gift Baskets",
            "url": "https://example.com/business-news/costco-holiday-gift-baskets-1238500113/",
            "page": 11
        },
        {
            "headline": "BJ's Wholesale Club Holdings Notes Elevated Holiday Pantry Loading",
            "url": "https://example.com/business-news/bjs-holiday-pantry-loading-1238500114/",
            "page": 11
        },
        {
            "headline": "Sam's Club Strengthens Last-Minute Curbside Pickup Capacity",
            "url": "https://example.com/business-news/sams-club-last-minute-curbside-1238500115/",
            "page": 11
        },
        {
            "headline": "Academy Sports and Outdoors Promotes Last-Chance Deals on Fitness Gear",
            "url": "https://example.com/business-news/academy-last-chance-fitness-deals-1238500116/",
            "page": 11
        },
        {
            "headline": "Big 5 Sporting Goods Adjusts Store Hours to Capture Holiday Rush",
            "url": "https://example.com/business-news/big5-holiday-store-hours-1238500117/",
            "page": 11
        },
        {
            "headline": "GameStop Corp. Leans on Console Bundles for Year-End Sales",
            "url": "https://example.com/business-news/gamestop-console-bundles-year-end-1238500118/",
            "page": 11
        },
        {
            "headline": "Hibbett, Inc. Extends Free Shipping Window for Online Orders",
            "url": "https://example.com/business-news/hibbett-extended-free-shipping-1238500119/",
            "page": 11
        },
        {
            "headline": "Ollie's Bargain Outlet Holdings Pushes Doorbuster Promotions for Clearance",
            "url": "https://example.com/business-news/ollies-doorbuster-clearance-1238500120/",
            "page": 11
        },
        {
            "headline": "Ingles Markets, Inc. Adds Extra Staff for Holiday Bakery Operations",
            "url": "https://example.com/business-news/ingles-holiday-bakery-staffing-1238500121/",
            "page": 11
        },
        {
            "headline": "Natural Grocers by Vitamin Cottage Highlights Better-For-You Holiday Options",
            "url": "https://example.com/business-news/natural-grocers-better-for-you-holiday-1238500122/",
            "page": 11
        },
        {
            "headline": "Sprouts Farmers Market, Inc. Sees Strong Demand for Fresh Produce Trays",
            "url": "https://example.com/business-news/sprouts-fresh-produce-holiday-1238500123/",
            "page": 11
        },
        {
            "headline": "US Foods Holding Corp. Supports Operators With Last-Minute Menu Guidance",
            "url": "https://example.com/business-news/us-foods-last-minute-menu-guidance-1238500124/",
            "page": 11
        },
        {
            "headline": "Mister Car Wash, Inc. Offers Holiday Gift Card Bonuses to Drive Membership",
            "url": "https://example.com/business-news/mister-car-wash-holiday-gift-cards-1238500125/",
            "page": 11
        },
        {
            "headline": "Petco Health and Wellness Company, Inc. Promotes Holiday Pet Safety Campaign",
            "url": "https://example.com/business-news/petco-holiday-pet-safety-1238500126/",
            "page": 11
        },
        {
            "headline": "Camping World Holdings, Inc. Markets Winterization Services to RV Owners",
            "url": "https://example.com/business-news/camping-world-winterization-services-1238500127/",
            "page": 11
        },
        {
            "headline": "Topgolf Callaway Brands Corp. Books Strong Corporate Holiday Events",
            "url": "https://example.com/business-news/topgolf-callaway-corporate-holiday-events-1238500128/",
            "page": 11
        },
        {
            "headline": "Vail Resorts, Inc. Sees Solid Early-Season Bookings Despite Mixed Snowfall",
            "url": "https://example.com/business-news/vail-resorts-early-season-bookings-1238500129/",
            "page": 11
        },
        {
            "headline": "PriceSmart, Inc. Prepares Clubs for Post-Holiday Clearance Events",
            "url": "https://example.com/business-news/pricesmart-post-holiday-clearance-1238500130/",
            "page": 11
        },
        {
            "headline": "Walmart Inc. Emphasizes Value Messaging as Consumers Watch Budgets",
            "url": "https://example.com/business-news/walmart-value-messaging-holiday-1238500131/",
            "page": 12
        },
        {
            "headline": "Target Corporation Uses Data to Optimize Holiday Inventory Replenishment",
            "url": "https://example.com/business-news/target-inventory-optimization-holiday-1238500132/",
            "page": 12
        },
        {
            "headline": "Costco Wholesale Corporation Prepares Rotating Sampling Events for New Year",
            "url": "https://example.com/business-news/costco-new-year-sampling-events-1238500133/",
            "page": 12
        },
        {
            "headline": "BJ's Wholesale Club Holdings, Inc. Highlights Digital Engagement During Holiday Week",
            "url": "https://example.com/business-news/bjs-holiday-digital-engagement-1238500134/",
            "page": 12
        },
        {
            "headline": "Sam's Club Leverages Scan-and-Go to Reduce Holiday Checkout Lines",
            "url": "https://example.com/business-news/sams-club-scan-and-go-holiday-1238500135/",
            "page": 12
        },
        {
            "headline": "Academy Sports + Outdoors Spotlights Home Fitness and Outdoor Recreation Bundles",
            "url": "https://example.com/business-news/academy-home-fitness-outdoor-bundles-1238500136/",
            "page": 12
        },
        {
            "headline": "GameStop Corp. Extends Store Hours for Last-Minute Shoppers",
            "url": "https://example.com/business-news/gamestop-extended-holiday-hours-1238500137/",
            "page": 12
        },
        {
            "headline": "Vail Resorts, Inc. Promotes Mobile App Features for On-Mountain Navigation",
            "url": "https://example.com/business-news/vail-resorts-on-mountain-app-1238500138/",
            "page": 12
        },
        {
            "headline": "Topgolf Callaway Brands Corp. Launches Holiday-Themed Gameplay Experiences",
            "url": "https://example.com/business-news/topgolf-holiday-themed-gameplay-1238500139/",
            "page": 12
        },
        {
            "headline": "Ollie's Bargain Outlet Holdings, Inc. Builds Anticipation for New-Year Bargain Events",
            "url": "https://example.com/business-news/ollies-new-year-bargain-events-1238500140/",
            "page": 12
        }
    ]
}