{
  "source": "Airtelbharat News",
  "url": "https://example.com/us-retail-leisure-news/",
  "days": 7,
  "cutoff_date": "2025-12-25",
  "total": 195,
  "pages": 14,
  "timestamp": "2025-12-24T10:00:00",
  "articles": [
    {
      "headline": "Walmart Inc. Finalizes Store Hours and Staffing Plans for Christmas Eve",
      "url": "https://example.com/business-news/walmart-christmas-eve-hours-1238500301/",
      "page": 14
    },
    {
      "headline": "Target Corporation Monitors Last-Minute Gift Demand on December 24",
      "url": "https://example.com/business-news/target-last-minute-gift-demand-1238500302/",
      "page": 14
    },
    {
      "headline": "Costco Wholesale Corporation Tracks Member Traffic on December 24 Ahead of Closures",
      "url": "https://example.com/business-news/costco-dec24-member-traffic-1238500303/",
      "page": 14
    },
    {
      "headline": "BJ's Wholesale Club Holdings, Inc. Wraps Up Holiday Promotions With December 24 Specials",
      "url": "https://example.com/business-news/bjs-dec24-holiday-specials-1238500304/",
      "page": 14
    },
    {
      "headline": "Vail Resorts, Inc. Reports Strong Mountain Attendance Going Into the Christmas Weekend",
      "url": "https://example.com/business-news/vail-resorts-dec24-attendance-1238500305/",
      "page": 14
    }
  ]
}
