{
    "source": "Global Business News",
    "url": "https://example.com/business-news/",
    "days": 7,
    "cutoff_date": "2025-12-12",
    "total": 150,
    "pages": 10,
    "timestamp": "2025-12-19T11:39:44.202566",
    "articles": [
        {
            "headline": "Apple Names New Head of AI Strategy",
            "url": "https://example.com/business-news/apple-new-head-of-ai-strategy-1238400001/",
            "page": 1
        },
        {
            "headline": "Microsoft Expands Cloud Data Centers in India",
            "url": "https://example.com/business-news/microsoft-expands-cloud-india-1238400002/",
            "page": 1
        },
        {
            "headline": "Amazon Unveils Same-Day Delivery Network Upgrade",
            "url": "https://example.com/business-news/amazon-same-day-delivery-upgrade-1238400003/",
            "page": 1
        },
        {
            "headline": "Alphabet Invests in Quantum Computing Startup",
            "url": "https://example.com/business-news/alphabet-quantum-startup-investment-1238400004/",
            "page": 1
        },
        {
            "headline": "Meta Platforms Launches New Privacy Tools for Reels",
            "url": "https://example.com/business-news/meta-privacy-tools-reels-1238400005/",
            "page": 1
        },
        {
            "headline": "Tesla Announces Next-Gen Battery Factory in Texas",
            "url": "https://example.com/business-news/tesla-next-gen-battery-texas-1238400006/",
            "page": 1
        },
        {
            "headline": "Nvidia Introduces AI Chip Tailored for Data Centers",
            "url": "https://example.com/business-news/nvidia-data-center-ai-chip-1238400007/",
            "page": 1
        },
        {
            "headline": "Samsung Expands Semiconductor R&D Hub in Seoul",
            "url": "https://example.com/business-news/samsung-semiconductor-rd-seoul-1238400008/",
            "page": 1
        },
        {
            "headline": "IBM Partners With Major Bank on Quantum Security",
            "url": "https://example.com/business-news/ibm-bank-quantum-security-1238400009/",
            "page": 1
        },
        {
            "headline": "Oracle Launches Industry-Specific Cloud for Healthcare",
            "url": "https://example.com/business-news/oracle-healthcare-cloud-launch-1238400010/",
            "page": 1
        },
        {
            "headline": "Intel Reveals Roadmap for 1nm Process Node",
            "url": "https://example.com/business-news/intel-1nm-roadmap-1238400011/",
            "page": 2
        },
        {
            "headline": "Adobe Integrates Generative AI Across Creative Cloud",
            "url": "https://example.com/business-news/adobe-generative-ai-creative-cloud-1238400012/",
            "page": 2
        },
        {
            "headline": "Salesforce Debuts Customer Data Platform for SMEs",
            "url": "https://example.com/business-news/salesforce-cdp-sme-launch-1238400013/",
            "page": 2
        },
        {
            "headline": "SAP Accelerates Move to Cloud Subscription Model",
            "url": "https://example.com/business-news/sap-cloud-subscription-shift-1238400014/",
            "page": 2
        },
        {
            "headline": "Accenture Forms Dedicated AI Transformation Unit",
            "url": "https://example.com/business-news/accenture-ai-transformation-unit-1238400015/",
            "page": 2
        },
        {
            "headline": "Cisco Enhances Security Portfolio With New Zero Trust Suite",
            "url": "https://example.com/business-news/cisco-zero-trust-suite-1238400016/",
            "page": 2
        },
        {
            "headline": "HP Introduces Sustainable Laptop Line With Recycled Materials",
            "url": "https://example.com/business-news/hp-sustainable-laptop-line-1238400017/",
            "page": 2
        },
        {
            "headline": "Dell Rolls Out Edge Computing Solutions for Retailers",
            "url": "https://example.com/business-news/dell-edge-computing-retail-1238400018/",
            "page": 2
        },
        {
            "headline": "Sony Strengthens Gaming Division With Cloud Streaming Deal",
            "url": "https://example.com/business-news/sony-cloud-gaming-streaming-deal-1238400019/",
            "page": 2
        },
        {
            "headline": "Netflix Tests Interactive Sports Content Format",
            "url": "https://example.com/business-news/netflix-interactive-sports-format-1238400020/",
            "page": 2
        },
        {
            "headline": "Disney Announces Global Theme Park Expansion Plan",
            "url": "https://example.com/business-news/disney-theme-park-expansion-1238400021/",
            "page": 3
        },
        {
            "headline": "Warner Bros. Discovery Restructures Streaming Business Unit",
            "url": "https://example.com/business-news/wbd-streaming-unit-restructure-1238400022/",
            "page": 3
        },
        {
            "headline": "Comcast Invests in High-Speed Rural Broadband Initiative",
            "url": "https://example.com/business-news/comcast-rural-broadband-initiative-1238400023/",
            "page": 3
        },
        {
            "headline": "AT&T Expands 5G Standalone Network Coverage",
            "url": "https://example.com/business-news/att-5g-standalone-expansion-1238400024/",
            "page": 3
        },
        {
            "headline": "Verizon Launches Enterprise Private 5G Offering",
            "url": "https://example.com/business-news/verizon-enterprise-private-5g-1238400025/",
            "page": 3
        },
        {
            "headline": "T-Mobile Pilots Satellite-to-Phone Connectivity Service",
            "url": "https://example.com/business-news/tmobile-satellite-phone-pilot-1238400026/",
            "page": 3
        },
        {
            "headline": "Vodafone Sells Stake in African Tower Assets",
            "url": "https://example.com/business-news/vodafone-africa-tower-sale-1238400027/",
            "page": 3
        },
        {
            "headline": "Orange Group Invests in AI-Powered Network Optimization",
            "url": "https://example.com/business-news/orange-ai-network-optimization-1238400028/",
            "page": 3
        },
        {
            "headline": "BT Group Announces Copper Network Switch-Off Timeline",
            "url": "https://example.com/business-news/bt-copper-switch-off-timeline-1238400029/",
            "page": 3
        },
        {
            "headline": "Telefonica Launches Cloud-Native Core in Latin America",
            "url": "https://example.com/business-news/telefonica-cloud-core-latam-1238400030/",
            "page": 3
        },
        {
            "headline": "JPMorgan Chase Launches Tokenized Deposits Pilot",
            "url": "https://example.com/business-news/jpmorgan-tokenized-deposits-pilot-1238400031/",
            "page": 4
        },
        {
            "headline": "Bank of America Expands Digital Mortgage Platform",
            "url": "https://example.com/business-news/bofa-digital-mortgage-expansion-1238400032/",
            "page": 4
        },
        {
            "headline": "Citigroup Sells Non-Core Consumer Business in Asia",
            "url": "https://example.com/business-news/citigroup-asia-consumer-sale-1238400033/",
            "page": 4
        },
        {
            "headline": "Wells Fargo Invests in Fintech Startup Ecosystem Fund",
            "url": "https://example.com/business-news/wells-fargo-fintech-fund-1238400034/",
            "page": 4
        },
        {
            "headline": "Goldman Sachs Launches AI-Driven Trading Analytics Suite",
            "url": "https://example.com/business-news/goldman-ai-trading-analytics-1238400035/",
            "page": 4
        },
        {
            "headline": "Morgan Stanley Expands Wealth Management in Europe",
            "url": "https://example.com/business-news/morgan-stanley-europe-wealth-expansion-1238400036/",
            "page": 4
        },
        {
            "headline": "HSBC Commits New Capital to Sustainability-Linked Loans",
            "url": "https://example.com/business-news/hsbc-sustainability-linked-loans-1238400037/",
            "page": 4
        },
        {
            "headline": "Barclays Announces Cost-Cutting and Branch Optimization Plan",
            "url": "https://example.com/business-news/barclays-branch-optimization-1238400038/",
            "page": 4
        },
        {
            "headline": "Deutsche Bank Scales Up Transaction Banking in Asia-Pacific",
            "url": "https://example.com/business-news/deutsche-bank-tb-asia-1238400039/",
            "page": 4
        },
        {
            "headline": "UBS Finalizes Integration of Wealth Platforms After Merger",
            "url": "https://example.com/business-news/ubs-wealth-platform-integration-1238400040/",
            "page": 4
        },
        {
            "headline": "Visa Introduces Cross-Border Real-Time Payment Solution",
            "url": "https://example.com/business-news/visa-cross-border-real-time-payments-1238400041/",
            "page": 5
        },
        {
            "headline": "Mastercard Expands Open Banking Services in Europe",
            "url": "https://example.com/business-news/mastercard-open-banking-europe-1238400042/",
            "page": 5
        },
        {
            "headline": "PayPal Rolls Out Unified Commerce Suite for Merchants",
            "url": "https://example.com/business-news/paypal-unified-commerce-suite-1238400043/",
            "page": 5
        },
        {
            "headline": "Stripe Launches Embedded Finance Platform for Platforms",
            "url": "https://example.com/business-news/stripe-embedded-finance-platform-1238400044/",
            "page": 5
        },
        {
            "headline": "Shopify Enhances AI Tools for Online Store Personalization",
            "url": "https://example.com/business-news/shopify-ai-store-personalization-1238400045/",
            "page": 5
        },
        {
            "headline": "Walmart Expands Drone Delivery Trials in the US",
            "url": "https://example.com/business-news/walmart-drone-delivery-trials-1238400046/",
            "page": 5
        },
        {
            "headline": "Target Invests in Supply Chain Automation Upgrades",
            "url": "https://example.com/business-news/target-supply-chain-automation-1238400047/",
            "page": 5
        },
        {
            "headline": "Costco Announces New Warehouse Openings in Asia",
            "url": "https://example.com/business-news/costco-warehouse-asia-expansion-1238400048/",
            "page": 5
        },
        {
            "headline": "Home Depot Launches Pro-Focused E-Commerce Platform",
            "url": "https://example.com/business-news/home-depot-pro-ecommerce-1238400049/",
            "page": 5
        },
        {
            "headline": "IKEA Accelerates Rollout of City-Center Small Format Stores",
            "url": "https://example.com/business-news/ikea-city-center-stores-1238400050/",
            "page": 5
        },
        {
            "headline": "Toyota Reveals Next-Generation Solid-State EV Battery Plan",
            "url": "https://example.com/business-news/toyota-solid-state-battery-plan-1238400051/",
            "page": 6
        },
        {
            "headline": "Volkswagen Invests in Software-Defined Vehicle Architecture",
            "url": "https://example.com/business-news/vw-software-defined-vehicle-1238400052/",
            "page": 6
        },
        {
            "headline": "General Motors Expands EV Production Capacity in Mexico",
            "url": "https://example.com/business-news/gm-ev-production-mexico-1238400053/",
            "page": 6
        },
        {
            "headline": "Ford Launches New Line of Hybrid Trucks for Global Markets",
            "url": "https://example.com/business-news/ford-hybrid-trucks-global-1238400054/",
            "page": 6
        },
        {
            "headline": "BMW Group Opens Battery Recycling Facility in Europe",
            "url": "https://example.com/business-news/bmw-battery-recycling-europe-1238400055/",
            "page": 6
        },
        {
            "headline": "Mercedes-Benz Focuses on Luxury EV Segment With New Flagship",
            "url": "https://example.com/business-news/mercedes-luxury-ev-flagship-1238400056/",
            "page": 6
        },
        {
            "headline": "Hyundai Motor Invests in Autonomous Ride-Hailing Pilot",
            "url": "https://example.com/business-news/hyundai-autonomous-ridehailing-1238400057/",
            "page": 6
        },
        {
            "headline": "Stellantis Consolidates Platforms Across Global Brands",
            "url": "https://example.com/business-news/stellantis-platform-consolidation-1238400058/",
            "page": 6
        },
        {
            "headline": "BYD Expands EV Exports to European Markets",
            "url": "https://example.com/business-news/byd-ev-export-europe-1238400059/",
            "page": 6
        },
        {
            "headline": "Honda Announces Joint Venture for Hydrogen Fuel Solutions",
            "url": "https://example.com/business-news/honda-hydrogen-joint-venture-1238400060/",
            "page": 6
        },
        {
            "headline": "ExxonMobil Increases Investment in Low-Carbon Solutions Unit",
            "url": "https://example.com/business-news/exxon-low-carbon-investment-1238400061/",
            "page": 7
        },
        {
            "headline": "Chevron Develops Carbon Capture Hub on US Gulf Coast",
            "url": "https://example.com/business-news/chevron-carbon-capture-gulf-1238400062/",
            "page": 7
        },
        {
            "headline": "Shell Plans Additional Offshore Wind Projects in North Sea",
            "url": "https://example.com/business-news/shell-offshore-wind-north-sea-1238400063/",
            "page": 7
        },
        {
            "headline": "BP Expands EV Charging Network Across Europe",
            "url": "https://example.com/business-news/bp-ev-charging-europe-1238400064/",
            "page": 7
        },
        {
            "headline": "TotalEnergies Commits Capital to Large-Scale Solar in India",
            "url": "https://example.com/business-news/totalenergies-solar-india-1238400065/",
            "page": 7
        },
        {
            "headline": "Enel Green Power Announces New Renewable Capacity in Latin America",
            "url": "https://example.com/business-news/enel-renewable-latam-1238400066/",
            "page": 7
        },
        {
            "headline": "NextEra Energy Invests in Grid-Scale Battery Storage",
            "url": "https://example.com/business-news/nextera-grid-battery-storage-1238400067/",
            "page": 7
        },
        {
            "headline": "Siemens Energy Develops Next-Gen Turbines for Offshore Wind",
            "url": "https://example.com/business-news/siemens-energy-offshore-turbine-1238400068/",
            "page": 7
        },
        {
            "headline": "GE Vernova Wins Contract for Smart Grid Upgrade",
            "url": "https://example.com/business-news/ge-vernova-smart-grid-upgrade-1238400069/",
            "page": 7
        },
        {
            "headline": "Orsted Diversifies Into Renewable Hydrogen Production",
            "url": "https://example.com/business-news/orsted-renewable-hydrogen-1238400070/",
            "page": 7
        },
        {
            "headline": "Pfizer Advances Late-Stage Trials for Novel Oncology Drug",
            "url": "https://example.com/business-news/pfizer-oncology-trial-1238400071/",
            "page": 8
        },
        {
            "headline": "Johnson & Johnson Spins Off Consumer Health Subsidiary",
            "url": "https://example.com/business-news/jnj-consumer-health-spinoff-1238400072/",
            "page": 8
        },
        {
            "headline": "Novartis Invests in Gene Therapy Manufacturing Capacity",
            "url": "https://example.com/business-news/novartis-gene-therapy-manufacturing-1238400073/",
            "page": 8
        },
        {
            "headline": "Roche Expands Diagnostics Portfolio With AI Imaging Tools",
            "url": "https://example.com/business-news/roche-ai-diagnostics-1238400074/",
            "page": 8
        },
        {
            "headline": "Merck & Co. Announces Strategic Collaboration on mRNA Vaccines",
            "url": "https://example.com/business-news/merck-mrna-collaboration-1238400075/",
            "page": 8
        },
        {
            "headline": "AstraZeneca Launches Global Initiative for Respiratory Health",
            "url": "https://example.com/business-news/astrazeneca-respiratory-initiative-1238400076/",
            "page": 8
        },
        {
            "headline": "Sanofi Focuses R&D Investment on Immunology Pipeline",
            "url": "https://example.com/business-news/sanofi-immunology-rd-focus-1238400077/",
            "page": 8
        },
        {
            "headline": "GSK Expands Vaccine Production Facilities in Europe",
            "url": "https://example.com/business-news/gsk-vaccine-production-europe-1238400078/",
            "page": 8
        },
        {
            "headline": "Eli Lilly Scales Manufacturing for Obesity Treatment Portfolio",
            "url": "https://example.com/business-news/lilly-obesity-manufacturing-scale-1238400079/",
            "page": 8
        },
        {
            "headline": "Novo Nordisk Invests in New R&D Campus in Denmark",
            "url": "https://example.com/business-news/novo-nordisk-rd-campus-denmark-1238400080/",
            "page": 8
        },
        {
            "headline": "Procter & Gamble Introduces Plastic-Free Packaging Pilots",
            "url": "https://example.com/business-news/pg-plastic-free-packaging-1238400081/",
            "page": 9
        },
        {
            "headline": "Unilever Expands Premium Beauty Portfolio With New Brand",
            "url": "https://example.com/business-news/unilever-premium-beauty-brand-1238400082/",
            "page": 9
        },
        {
            "headline": "Coca-Cola Trials Refillable Bottles in Additional Markets",
            "url": "https://example.com/business-news/cocacola-refillable-bottles-trial-1238400083/",
            "page": 9
        },
        {
            "headline": "PepsiCo Invests in Plant-Based Snack Innovations",
            "url": "https://example.com/business-news/pepsico-plant-based-snacks-1238400084/",
            "page": 9
        },
        {
            "headline": "Nestlé Expands Nutrition-Focused Products in Emerging Markets",
            "url": "https://example.com/business-news/nestle-nutrition-emerging-markets-1238400085/",
            "page": 9
        },
        {
            "headline": "Mondelez Launches Global Responsible Sourcing Program",
            "url": "https://example.com/business-news/mondelez-responsible-sourcing-1238400086/",
            "page": 9
        },
        {
            "headline": "L'Oréal Enhances Direct-to-Consumer E-Commerce Strategy",
            "url": "https://example.com/business-news/loreal-d2c-ecommerce-strategy-1238400087/",
            "page": 9
        },
        {
            "headline": "Estee Lauder Accelerates Skincare Innovation with New Lab",
            "url": "https://example.com/business-news/elc-skincare-innovation-lab-1238400088/",
            "page": 9
        },
        {
            "headline": "Colgate-Palmolive Focuses on Water-Saving Oral Care Products",
            "url": "https://example.com/business-news/colgate-water-saving-oral-care-1238400089/",
            "page": 9
        },
        {
            "headline": "Kimberly-Clark Introduces Eco-Friendly Personal Care Line",
            "url": "https://example.com/business-news/kimberlyclark-eco-personal-care-1238400090/",
            "page": 9
        },
        {
            "headline": "McDonald's Tests AI-Driven Drive-Thru Ordering System",
            "url": "https://example.com/business-news/mcdonalds-ai-drive-thru-test-1238400091/",
            "page": 10
        },
        {
            "headline": "Starbucks Expands Cold Beverage Portfolio in Asia",
            "url": "https://example.com/business-news/starbucks-cold-beverage-asia-1238400092/",
            "page": 10
        },
        {
            "headline": "Yum Brands Launches Digital-Only Taco Bell Concept",
            "url": "https://example.com/business-news/yum-digital-taco-bell-1238400093/",
            "page": 10
        },
        {
            "headline": "Domino's Pilots Autonomous Pizza Delivery in Suburbs",
            "url": "https://example.com/business-news/dominos-autonomous-delivery-pilot-1238400094/",
            "page": 10
        },
        {
            "headline": "Uber Technologies Expands Mobility Subscription Service",
            "url": "https://example.com/business-news/uber-mobility-subscription-1238400095/",
            "page": 10
        },
        {
            "headline": "Airbnb Launches Long-Term Stay Product for Digital Nomads",
            "url": "https://example.com/business-news/airbnb-long-term-digital-nomad-1238400096/",
            "page": 10
        },
        {
            "headline": "Booking Holdings Enhances Loyalty Program With Tiered Benefits",
            "url": "https://example.com/business-news/booking-loyalty-tiered-benefits-1238400097/",
            "page": 10
        },
        {
            "headline": "Delta Air Lines Invests in Sustainable Aviation Fuel Supply",
            "url": "https://example.com/business-news/delta-sustainable-aviation-fuel-1238400098/",
            "page": 10
        },
        {
            "headline": "United Airlines Unveils Next-Generation Cabin Experience",
            "url": "https://example.com/business-news/united-next-gen-cabin-1238400099/",
            "page": 10
        },
        {
            "headline": "American Airlines Modernizes Fleet With Fuel-Efficient Jets",
            "url": "https://example.com/business-news/american-fleet-modernization-1238400100/",
            "page": 10
        },
        {
            "headline": "Ryanair Places New Aircraft Order to Support Growth Plan",
            "url": "https://example.com/business-news/ryanair-aircraft-order-1238400101/",
            "page": 10
        },
        {
            "headline": "Singapore Airlines Expands Premium Economy Offering",
            "url": "https://example.com/business-news/sia-premium-economy-expansion-1238400102/",
            "page": 10
        },
        {
            "headline": "Qatar Airways Opens New Lounge Focused on Business Travelers",
            "url": "https://example.com/business-news/qatar-airways-business-lounge-1238400103/",
            "page": 10
        },
        {
            "headline": "Emirates Invests in Next-Gen Inflight Entertainment Platform",
            "url": "https://example.com/business-news/emirates-next-gen-ife-1238400104/",
            "page": 10
        },
        {
            "headline": "Saudi Aramco Explores Downstream Joint Venture in Asia",
            "url": "https://example.com/business-news/aramco-downstream-jv-asia-1238400105/",
            "page": 10
        },
        {
            "headline": "Berkshire Hathaway Increases Stake in Leading Energy Utility",
            "url": "https://example.com/business-news/berkshire-stake-energy-utility-1238400106/",
            "page": 10
        },
        {
            "headline": "Tencent Invests in Global Gaming Studio Expansion",
            "url": "https://example.com/business-news/tencent-global-gaming-expansion-1238400107/",
            "page": 10
        },
        {
            "headline": "Alibaba Group Spins Off Logistics Arm via IPO",
            "url": "https://example.com/business-news/alibaba-logistics-ipo-1238400108/",
            "page": 10
        },
        {
            "headline": "Reliance Industries Expands Retail Presence With New Format",
            "url": "https://example.com/business-news/reliance-new-retail-format-1238400109/",
            "page": 10
        },
        {
            "headline": "Tata Group Launches Super App Integrating Key Consumer Brands",
            "url": "https://example.com/business-news/tata-super-app-launch-1238400110/",
            "page": 10
        },
        {
            "headline": "LVMH Enhances Omnichannel Luxury Experience With New Tech",
            "url": "https://example.com/business-news/lvmh-omnichannel-luxury-tech-1238400111/",
            "page": 10
        },
        {
            "headline": "Kering Focuses on Brand Elevation and Margin Expansion",
            "url": "https://example.com/business-news/kering-brand-elevation-plan-1238400112/",
            "page": 10
        },
        {
            "headline": "Hermès Increases Production Capacity for Iconic Handbags",
            "url": "https://example.com/business-news/hermes-handbag-capacity-increase-1238400113/",
            "page": 10
        },
        {
            "headline": "Inditex Invests in Automated Distribution Centers in Europe",
            "url": "https://example.com/business-news/inditex-automated-distribution-europe-1238400114/",
            "page": 10
        },
        {
            "headline": "H&M Group Expands Circular Fashion Initiatives Globally",
            "url": "https://example.com/business-news/hm-circular-fashion-expansion-1238400115/",
            "page": 10
        },
        {
            "headline": "Nike Strengthens Direct-to-Consumer Strategy With New Stores",
            "url": "https://example.com/business-news/nike-dtc-new-stores-1238400116/",
            "page": 10
        },
        {
            "headline": "Adidas Launches Performance Footwear Line With Recycled Materials",
            "url": "https://example.com/business-news/adidas-recycled-materials-footwear-1238400117/",
            "page": 10
        },
        {
            "headline": "Puma Collaborates With Tech Firm on Smart Wearables",
            "url": "https://example.com/business-news/puma-smart-wearables-collab-1238400118/",
            "page": 10
        },
        {
            "headline": "Zara Tests On-Demand Manufacturing Model in Key Markets",
            "url": "https://example.com/business-news/zara-on-demand-manufacturing-1238400119/",
            "page": 10
        },
        {
            "headline": "TikTok Parent ByteDance Expands E-Commerce Features",
            "url": "https://example.com/business-news/bytedance-tiktok-ecommerce-expansion-1238400120/",
            "page": 10
        },
        {
            "headline": "Uber Eats Integrates With Major Grocery Chains for Rapid Delivery",
            "url": "https://example.com/business-news/ubereats-grocery-rapid-delivery-1238400121/",
            "page": 10
        },
        {
            "headline": "DoorDash Introduces Subscription Tier for Small Businesses",
            "url": "https://example.com/business-news/doordash-small-business-subscription-1238400122/",
            "page": 10
        },
        {
            "headline": "Intel Foundry Services Signs Strategic Customer for Advanced Nodes",
            "url": "https://example.com/business-news/intel-foundry-strategic-customer-1238400123/",
            "page": 10
        },
        {
            "headline": "TSMC Confirms New Fab Investment in Japan",
            "url": "https://example.com/business-news/tsmc-new-fab-japan-1238400124/",
            "page": 10
        },
        {
            "headline": "ASML Ramps EUV Tool Production to Meet Demand",
            "url": "https://example.com/business-news/asml-euv-production-ramp-1238400125/",
            "page": 10
        },
        {
            "headline": "Ferrari Expands Personalization Options for High-End Clients",
            "url": "https://example.com/business-news/ferrari-client-personalization-1238400126/",
            "page": 10
        },
        {
            "headline": "Rolex Invests in New Manufacturing Facility in Switzerland",
            "url": "https://example.com/business-news/rolex-new-manufacturing-switzerland-1238400127/",
            "page": 10
        },
        {
            "headline": "Bulgari Names Laura Burdese Chief Executive Officer",
            "url": "https://example.com/business-news/bulgari-laura-burdese-new-chief-executive-officer-1238428660/",
            "page": 10
        },
        {
            "headline": "Pandora Appoints New CEO to Drive Growth Strategy",
            "url": "https://example.com/business-news/pandora-new-ceo-growth-strategy-1238400129/",
            "page": 10
        },
        {
            "headline": "Ganni Strengthens Leadership With Three New Executives",
            "url": "https://example.com/business-news/ganni-leadership-three-executives-1238400130/",
            "page": 10
        }
    ]
}