{
    "source": "US Retail & Leisure Business News",
    "url": "https://example.com/us-retail-leisure-news/",
    "days": 7,
    "cutoff_date": "2025-12-12",
    "total": 150,
    "pages": 10,
    "timestamp": "2025-12-21T00:36:00",
    "articles": [
        {
            "headline": "Walmart Expands Same-Day Grocery Delivery in New Markets",
            "url": "https://example.com/business-news/walmart-same-day-grocery-expansion-1238500001/",
            "page": 1
        },
        {
            "headline": "Target Pilots Smaller Urban Store Format for 2026 Rollout",
            "url": "https://example.com/business-news/target-urban-format-pilot-1238500002/",
            "page": 1
        },
        {
            "headline": "Costco Announces Membership Price Review Amid Warehouse Growth",
            "url": "https://example.com/business-news/costco-membership-price-review-1238500003/",
            "page": 1
        },
        {
            "headline": "BJ's Wholesale Club Plans New Distribution Center in the Midwest",
            "url": "https://example.com/business-news/bjs-new-distribution-center-midwest-1238500004/",
            "page": 1
        },
        {
            "headline": "Sam's Club Tests AI-Powered Inventory Tracking in High-Volume Clubs",
            "url": "https://example.com/business-news/sams-club-ai-inventory-tracking-1238500005/",
            "page": 1
        },
        {
            "headline": "Ingles Markets Launches Local Sourcing Initiative With Regional Farmers",
            "url": "https://example.com/business-news/ingles-markets-local-sourcing-initiative-1238500006/",
            "page": 1
        },
        {
            "headline": "Natural Grocers Introduces Expanded Organic Private Label Line",
            "url": "https://example.com/business-news/natural-grocers-organic-private-label-1238500007/",
            "page": 1
        },
        {
            "headline": "Sprouts Farmers Market Opens New Health-Focused Prototype Store",
            "url": "https://example.com/business-news/sprouts-health-prototype-store-1238500008/",
            "page": 1
        },
        {
            "headline": "US Foods Holding Corp. Enhances Chef’s Store Cash-and-Carry Concept",
            "url": "https://example.com/business-news/us-foods-chefs-store-enhancement-1238500009/",
            "page": 1
        },
        {
            "headline": "PriceSmart Expands Central America Warehouse Footprint With New Club",
            "url": "https://example.com/business-news/pricesmart-new-central-america-club-1238500010/",
            "page": 1
        },
        {
            "headline": "Mister Car Wash Adds Subscription Perks to Unlimited Wash Club",
            "url": "https://example.com/business-news/mister-car-wash-subscription-perks-1238500011/",
            "page": 2
        },
        {
            "headline": "Mister Car Wash, Inc. Tests Water-Saving Tunnel Technology in Arizona",
            "url": "https://example.com/business-news/mister-car-wash-water-saving-tunnel-1238500012/",
            "page": 2
        },
        {
            "headline": "Petco Health and Wellness Company Launches New Veterinary Clinics in Stores",
            "url": "https://example.com/business-news/petco-in-store-vet-clinics-1238500013/",
            "page": 2
        },
        {
            "headline": "Petco Debuts Membership Program Bundling Grooming and Vet Services",
            "url": "https://example.com/business-news/petco-bundled-membership-program-1238500014/",
            "page": 2
        },
        {
            "headline": "Academy Sports + Outdoors Expands Private Label Outdoor Gear Selection",
            "url": "https://example.com/business-news/academy-sports-private-label-outdoor-1238500015/",
            "page": 2
        },
        {
            "headline": "Big 5 Sporting Goods Optimizes Store Footprint in Western US",
            "url": "https://example.com/business-news/big5-sporting-goods-footprint-optimization-1238500016/",
            "page": 2
        },
        {
            "headline": "GameStop Corp. Pushes Deeper Into Collectibles and Retro Gaming",
            "url": "https://example.com/business-news/gamestop-collectibles-retro-gaming-1238500017/",
            "page": 2
        },
        {
            "headline": "Hibbett, Inc. Refreshes Brand With New Store Experience for Athletes",
            "url": "https://example.com/business-news/hibbett-new-store-experience-1238500018/",
            "page": 2
        },
        {
            "headline": "Ollie's Bargain Outlet Holdings Targets Aggressive Store Expansion in 2026",
            "url": "https://example.com/business-news/ollies-bargain-outlet-expansion-1238500019/",
            "page": 2
        },
        {
            "headline": "Camping World Holdings, Inc. Expands RV Supercenter Network in the Southeast",
            "url": "https://example.com/business-news/camping-world-rv-supercenter-expansion-1238500020/",
            "page": 2
        },
        {
            "headline": "Topgolf Callaway Brands Corp. Opens New Multi-Level Venue in Chicago",
            "url": "https://example.com/business-news/topgolf-callaway-new-chicago-venue-1238500021/",
            "page": 3
        },
        {
            "headline": "Topgolf Integrates Advanced Ball-Tracking Tech Across US Locations",
            "url": "https://example.com/business-news/topgolf-ball-tracking-upgrade-1238500022/",
            "page": 3
        },
        {
            "headline": "Vail Resorts, Inc. Enhances Mobile Pass Technology for Ski Season",
            "url": "https://example.com/business-news/vail-resorts-mobile-pass-upgrade-1238500023/",
            "page": 3
        },
        {
            "headline": "Vail Resorts Expands Year-Round Mountain Activities Offering",
            "url": "https://example.com/business-news/vail-resorts-year-round-activities-1238500024/",
            "page": 3
        },
        {
            "headline": "Walmart Inc. Adds More Third-Party Sellers to Marketplace Platform",
            "url": "https://example.com/business-news/walmart-marketplace-seller-expansion-1238500025/",
            "page": 3
        },
        {
            "headline": "Target Corporation Invests in Store Remodels Focused on Omnichannel",
            "url": "https://example.com/business-news/target-store-remodel-omnichannel-1238500026/",
            "page": 3
        },
        {
            "headline": "Costco Wholesale Corporation Tests Same-Day Cold Chain Delivery",
            "url": "https://example.com/business-news/costco-same-day-cold-chain-1238500027/",
            "page": 3
        },
        {
            "headline": "BJ's Wholesale Club Holdings, Inc. Grows Fuel Station Network",
            "url": "https://example.com/business-news/bjs-fuel-station-growth-1238500028/",
            "page": 3
        },
        {
            "headline": "Academy, Ltd. Launches Loyalty Enhancements for Outdoor Enthusiasts",
            "url": "https://example.com/business-news/academy-ltd-loyalty-enhancement-1238500029/",
            "page": 3
        },
        {
            "headline": "PriceSmart, Inc. Upgrades Digital Experience for Latin American Members",
            "url": "https://example.com/business-news/pricesmart-digital-upgrade-1238500030/",
            "page": 3
        },
        {
            "headline": "Ingles Markets, Inc. Modernizes Distribution Fleet for Efficiency",
            "url": "https://example.com/business-news/ingles-markets-fleet-modernization-1238500031/",
            "page": 4
        },
        {
            "headline": "Ingles Expands Click-and-Collect Grocery Services in Rural Towns",
            "url": "https://example.com/business-news/ingles-click-collect-rural-expansion-1238500032/",
            "page": 4
        },
        {
            "headline": "Natural Grocers by Vitamin Cottage Adds Educational Nutrition Programs",
            "url": "https://example.com/business-news/natural-grocers-nutrition-programs-1238500033/",
            "page": 4
        },
        {
            "headline": "Vitamin Cottage, Inc. Highlights Strong Growth in Supplements Category",
            "url": "https://example.com/business-news/vitamin-cottage-supplement-growth-1238500034/",
            "page": 4
        },
        {
            "headline": "Sprouts Farmers Market, Inc. Expands Smaller-Format Neighborhood Stores",
            "url": "https://example.com/business-news/sprouts-neighborhood-format-1238500035/",
            "page": 4
        },
        {
            "headline": "US Foods Holding Corp. Introduces AI Menu Planning Tools for Operators",
            "url": "https://example.com/business-news/us-foods-ai-menu-planning-1238500036/",
            "page": 4
        },
        {
            "headline": "US Foods Pilots Electric Delivery Trucks in Urban Markets",
            "url": "https://example.com/business-news/us-foods-electric-trucks-pilot-1238500037/",
            "page": 4
        },
        {
            "headline": "Petco Animal Supplies Launches Same-Day Fresh Pet Food Delivery",
            "url": "https://example.com/business-news/petco-fresh-pet-food-delivery-1238500038/",
            "page": 4
        },
        {
            "headline": "GameStop Enhances Online Marketplace for Pre-Owned Electronics",
            "url": "https://example.com/business-news/gamestop-preowned-marketplace-1238500039/",
            "page": 4
        },
        {
            "headline": "Hibbett Sports Adds Connected Fitness Partnerships to Product Mix",
            "url": "https://example.com/business-news/hibbett-connected-fitness-partnerships-1238500040/",
            "page": 4
        },
        {
            "headline": "Ollie's Bargain Outlet Expands Closeout Sourcing Relationships",
            "url": "https://example.com/business-news/ollies-closeout-sourcing-expansion-1238500041/",
            "page": 5
        },
        {
            "headline": "Camping World Strengthens Good Sam Membership Benefits",
            "url": "https://example.com/business-news/camping-world-good-sam-benefits-1238500042/",
            "page": 5
        },
        {
            "headline": "Academy Sports and Outdoors Introduces New Store Concept for Team Sports",
            "url": "https://example.com/business-news/academy-team-sports-concept-1238500043/",
            "page": 5
        },
        {
            "headline": "Big 5 Sporting Goods Corporation Tests Smaller Neighborhood Outlets",
            "url": "https://example.com/business-news/big5-neighborhood-outlets-test-1238500044/",
            "page": 5
        },
        {
            "headline": "BJ's Wholesale Introduces Enhanced Digital Coupons for Members",
            "url": "https://example.com/business-news/bjs-digital-coupons-enhanced-1238500045/",
            "page": 5
        },
        {
            "headline": "Costco Wholesale Adds More Self-Checkout Lanes in High-Traffic Clubs",
            "url": "https://example.com/business-news/costco-self-checkout-expansion-1238500046/",
            "page": 5
        },
        {
            "headline": "Target Deepens Partnership With Popular Direct-to-Consumer Brands",
            "url": "https://example.com/business-news/target-dtc-brand-partnerships-1238500047/",
            "page": 5
        },
        {
            "headline": "Walmart Tests Micro-Fulfillment Centers Attached to Supercenters",
            "url": "https://example.com/business-news/walmart-micro-fulfillment-test-1238500048/",
            "page": 5
        },
        {
            "headline": "Sam's Club Adds Scan-and-Go Enhancements for Business Members",
            "url": "https://example.com/business-news/sams-club-scan-and-go-business-1238500049/",
            "page": 5
        },
        {
            "headline": "PriceSmart Pilots Renewable Energy Solutions at Warehouse Clubs",
            "url": "https://example.com/business-news/pricesmart-renewable-energy-pilot-1238500050/",
            "page": 5
        },
        {
            "headline": "Ingles Markets Upgrades In-Store Bakery and Deli Offerings",
            "url": "https://example.com/business-news/ingles-bakery-deli-upgrade-1238500051/",
            "page": 6
        },
        {
            "headline": "Natural Grocers Expands Better-for-You Snack Category",
            "url": "https://example.com/business-news/natural-grocers-better-for-you-snacks-1238500052/",
            "page": 6
        },
        {
            "headline": "Sprouts Farmers Market Focuses on Local Produce Partnerships",
            "url": "https://example.com/business-news/sprouts-local-produce-partnerships-1238500053/",
            "page": 6
        },
        {
            "headline": "US Foods Launches Training Programs for Independent Restaurant Operators",
            "url": "https://example.com/business-news/us-foods-training-independent-operators-1238500054/",
            "page": 6
        },
        {
            "headline": "Mister Car Wash Rolls Out Contactless Payment Lanes Nationwide",
            "url": "https://example.com/business-news/mister-car-wash-contactless-lanes-1238500055/",
            "page": 6
        },
        {
            "headline": "Petco Health and Wellness Company, Inc. Adds Behavioral Training Services",
            "url": "https://example.com/business-news/petco-behavioral-training-services-1238500056/",
            "page": 6
        },
        {
            "headline": "Academy Sports Boosts E-Commerce Fulfillment Capacity Ahead of Peak Season",
            "url": "https://example.com/business-news/academy-sports-ecommerce-fulfillment-1238500057/",
            "page": 6
        },
        {
            "headline": "BJ's Wholesale Club Holdings Expands Same-Day Delivery Options",
            "url": "https://example.com/business-news/bjs-same-day-delivery-expansion-1238500058/",
            "page": 6
        },
        {
            "headline": "Costco Wholesale Corporation Tests Scan-and-Go Technology in Select Clubs",
            "url": "https://example.com/business-news/costco-scan-and-go-pilot-1238500059/",
            "page": 6
        },
        {
            "headline": "GameStop Explores New Revenue Streams Through Esports Partnerships",
            "url": "https://example.com/business-news/gamestop-esports-partnerships-1238500060/",
            "page": 6
        },
        {
            "headline": "Hibbett, Inc. Focuses on Sneakerhead Community With Exclusive Drops",
            "url": "https://example.com/business-news/hibbett-exclusive-sneaker-drops-1238500061/",
            "page": 7
        },
        {
            "headline": "Ollie's Bargain Outlet Holdings, Inc. Enhances Loyalty Program Value",
            "url": "https://example.com/business-news/ollies-loyalty-program-enhancement-1238500062/",
            "page": 7
        },
        {
            "headline": "Camping World Holdings Adds Service Capacity for RV Maintenance",
            "url": "https://example.com/business-news/camping-world-rv-service-capacity-1238500063/",
            "page": 7
        },
        {
            "headline": "Topgolf Callaway Brands Expands Custom Fitting Studios in Key Markets",
            "url": "https://example.com/business-news/topgolf-callaway-custom-fitting-studios-1238500064/",
            "page": 7
        },
        {
            "headline": "Vail Resorts Invests in Sustainable Snowmaking Technologies",
            "url": "https://example.com/business-news/vail-resorts-sustainable-snowmaking-1238500065/",
            "page": 7
        },
        {
            "headline": "Walmart Inc. Expands Healthcare Clinics Adjacent to Supercenters",
            "url": "https://example.com/business-news/walmart-healthcare-clinics-expansion-1238500066/",
            "page": 7
        },
        {
            "headline": "Target Corporation Enhances Drive-Up Pickup With Returns Option",
            "url": "https://example.com/business-news/target-drive-up-returns-1238500067/",
            "page": 7
        },
        {
            "headline": "Costco Adds More International Locations to Long-Term Pipeline",
            "url": "https://example.com/business-news/costco-international-pipeline-1238500068/",
            "page": 7
        },
        {
            "headline": "BJ's Wholesale Strengthens Fresh Food Capabilities With New Sourcing Hubs",
            "url": "https://example.com/business-news/bjs-fresh-food-sourcing-hubs-1238500069/",
            "page": 7
        },
        {
            "headline": "PriceSmart Improves Cross-Border Supply Chain Resilience",
            "url": "https://example.com/business-news/pricesmart-cross-border-supply-chain-1238500070/",
            "page": 7
        },
        {
            "headline": "Ingles Markets Expands Fuel Rewards Program for Shoppers",
            "url": "https://example.com/business-news/ingles-fuel-rewards-expansion-1238500071/",
            "page": 8
        },
        {
            "headline": "Natural Grocers Introduces Sustainability Scorecards for Products",
            "url": "https://example.com/business-news/natural-grocers-sustainability-scorecards-1238500072/",
            "page": 8
        },
        {
            "headline": "Sprouts Farmers Market Adds Meal Kit Partnerships to Fresh Offerings",
            "url": "https://example.com/business-news/sprouts-meal-kit-partnerships-1238500073/",
            "page": 8
        },
        {
            "headline": "US Foods Holding Corp. Enhances E-Commerce Ordering Platform for Operators",
            "url": "https://example.com/business-news/us-foods-ecommerce-platform-enhancement-1238500074/",
            "page": 8
        },
        {
            "headline": "Mister Car Wash, Inc. Opens Flagship Express Location in Texas",
            "url": "https://example.com/business-news/mister-car-wash-flagship-texas-1238500075/",
            "page": 8
        },
        {
            "headline": "Petco Health and Wellness Company Expands Insurance Offerings for Pets",
            "url": "https://example.com/business-news/petco-pet-insurance-expansion-1238500076/",
            "page": 8
        },
        {
            "headline": "Academy Sports + Outdoors Partners With Major Sports Leagues on Merchandise",
            "url": "https://example.com/business-news/academy-sports-league-merchandise-1238500077/",
            "page": 8
        },
        {
            "headline": "BJ's Wholesale Club Debuts Smaller Market-Format Concept in Suburban Areas",
            "url": "https://example.com/business-news/bjs-market-format-suburban-1238500078/",
            "page": 8
        },
        {
            "headline": "Costco Wholesale Expands Pharmacy Services, Including Vaccination Clinics",
            "url": "https://example.com/business-news/costco-pharmacy-services-expansion-1238500079/",
            "page": 8
        },
        {
            "headline": "GameStop Corp. Tests Store-in-Store Concepts With Leading Electronics Brands",
            "url": "https://example.com/business-news/gamestop-store-in-store-concepts-1238500080/",
            "page": 8
        },
        {
            "headline": "Hibbett Sports Grows Digital Sales Through Improved Mobile App",
            "url": "https://example.com/business-news/hibbett-mobile-app-digital-sales-1238500081/",
            "page": 9
        },
        {
            "headline": "Ollie's Bargain Outlet Expands Seasonal Merchandise Mix",
            "url": "https://example.com/business-news/ollies-seasonal-merchandise-expansion-1238500082/",
            "page": 9
        },
        {
            "headline": "Camping World Holdings, Inc. Launches New RV Rental Platform",
            "url": "https://example.com/business-news/camping-world-rv-rental-platform-1238500083/",
            "page": 9
        },
        {
            "headline": "Topgolf Callaway Brands Corp. Integrates Data Analytics for Player Insights",
            "url": "https://example.com/business-news/topgolf-callaway-data-analytics-1238500084/",
            "page": 9
        },
        {
            "headline": "Vail Resorts, Inc. Enhances Guest Experience With Mobile Trip Planning",
            "url": "https://example.com/business-news/vail-resorts-mobile-trip-planning-1238500085/",
            "page": 9
        },
        {
            "headline": "Walmart Inc. Tests Generative AI Tools for Store Associates",
            "url": "https://example.com/business-news/walmart-generative-ai-associates-1238500086/",
            "page": 9
        },
        {
            "headline": "Target Corporation Adds More Ulta Beauty Shop-in-Shops to Stores",
            "url": "https://example.com/business-news/target-ulta-shop-in-shop-expansion-1238500087/",
            "page": 9
        },
        {
            "headline": "Costco Wholesale Corporation Focuses on Fresh Food Supply Chain Efficiency",
            "url": "https://example.com/business-news/costco-fresh-food-supply-chain-1238500088/",
            "page": 9
        },
        {
            "headline": "BJ's Wholesale Club Holdings, Inc. Highlights Progress in Digital Engagement",
            "url": "https://example.com/business-news/bjs-digital-engagement-progress-1238500089/",
            "page": 9
        },
        {
            "headline": "PriceSmart, Inc. Adds New Payment Options for Members",
            "url": "https://example.com/business-news/pricesmart-new-payment-options-1238500090/",
            "page": 9
        },
        {
            "headline": "Ingles Markets, Inc. Enhances Supply Chain Visibility With New Systems",
            "url": "https://example.com/business-news/ingles-supply-chain-visibility-1238500091/",
            "page": 10
        },
        {
            "headline": "Natural Grocers by Vitamin Cottage Expands Loyalty Rewards Tiers",
            "url": "https://example.com/business-news/natural-grocers-loyalty-tiers-1238500092/",
            "page": 10
        },
        {
            "headline": "Sprouts Farmers Market, Inc. Pilots Zero-Waste Store Initiative",
            "url": "https://example.com/business-news/sprouts-zero-waste-pilot-1238500093/",
            "page": 10
        },
        {
            "headline": "US Foods Holding Corp. Expands Chef-Driven Product Innovation Platform",
            "url": "https://example.com/business-news/us-foods-chef-driven-innovation-1238500094/",
            "page": 10
        },
        {
            "headline": "Mister Car Wash Adds Fleet Subscription Products for Business Customers",
            "url": "https://example.com/business-news/mister-car-wash-fleet-subscriptions-1238500095/",
            "page": 10
        },
        {
            "headline": "Petco Health and Wellness Company, Inc. Improves Digital Pet Health Records",
            "url": "https://example.com/business-news/petco-digital-health-records-1238500096/",
            "page": 10
        },
        {
            "headline": "Academy Sports and Outdoors Expands Store Count in the Midwest Region",
            "url": "https://example.com/business-news/academy-store-expansion-midwest-1238500097/",
            "page": 10
        },
        {
            "headline": "BJ's Wholesale Club Holdings Launches Enhanced Business Membership Tier",
            "url": "https://example.com/business-news/bjs-business-membership-tier-1238500098/",
            "page": 10
        },
        {
            "headline": "Costco Wholesale Corporation Pilots Dedicated E-Commerce Fulfillment Sites",
            "url": "https://example.com/business-news/costco-ecommerce-fulfillment-sites-1238500099/",
            "page": 10
        },
        {
            "headline": "GameStop Corp. Tests New Store Layout Focused on Community Events",
            "url": "https://example.com/business-news/gamestop-community-store-layout-1238500100/",
            "page": 10
        },
        {
            "headline": "Hibbett, Inc. Boosts Omnichannel Capabilities With Ship-from-Store Expansion",
            "url": "https://example.com/business-news/hibbett-ship-from-store-expansion-1238500101/",
            "page": 10
        },
        {
            "headline": "Ollie's Bargain Outlet Holdings Increases Focus on E-Commerce Trials",
            "url": "https://example.com/business-news/ollies-ecommerce-trials-1238500102/",
            "page": 10
        },
        {
            "headline": "Camping World Holdings, Inc. Adds More Service Technicians to Meet Demand",
            "url": "https://example.com/business-news/camping-world-service-technicians-hiring-1238500103/",
            "page": 10
        },
        {
            "headline": "Topgolf Callaway Brands Corp. Enhances Corporate Event Offerings",
            "url": "https://example.com/business-news/topgolf-callaway-corporate-events-1238500104/",
            "page": 10
        },
        {
            "headline": "Vail Resorts, Inc. Grows International Pass Sales Via New Partnerships",
            "url": "https://example.com/business-news/vail-resorts-international-pass-sales-1238500105/",
            "page": 10
        },
        {
            "headline": "Walmart Inc. Expands Marketplace Cross-Border Shipping Options",
            "url": "https://example.com/business-news/walmart-cross-border-marketplace-shipping-1238500106/",
            "page": 10
        },
        {
            "headline": "Target Corporation Strengthens Own-Brand Portfolio in Essentials",
            "url": "https://example.com/business-news/target-own-brand-essentials-1238500107/",
            "page": 10
        },
        {
            "headline": "Costco Wholesale Adds New Services for Business Members",
            "url": "https://example.com/business-news/costco-business-member-services-1238500108/",
            "page": 10
        },
        {
            "headline": "BJ's Wholesale Club Holdings, Inc. Optimizes Club Layouts for Efficiency",
            "url": "https://example.com/business-news/bjs-club-layout-optimization-1238500109/",
            "page": 10
        },
        {
            "headline": "PriceSmart, Inc. Focuses on Membership Engagement Through Events",
            "url": "https://example.com/business-news/pricesmart-membership-events-1238500110/",
            "page": 10
        }
    ]
}